…
Subregional typology summary: 
# A tibble: 46 × 4
   subregion    programme_priority_type            n pct_within_subregion
   <chr>        <chr>                          <int>                <dbl>
 1 ACHOLI       Lower immediate priority           8               0.533 
 2 ACHOLI       Access strengthening priority      7               0.467 
 3 ANKOLE       Co-risk surveillance priority     20               0.588 
 4 ANKOLE       High need high burden priority    10               0.294 
 5 ANKOLE       Hidden burden priority             3               0.0882
 6 ANKOLE       High need access priority          1               0.0294
 7 BUGISU_SEBEI Lower immediate priority           7               0.583 
 8 BUGISU_SEBEI Access strengthening priority      3               0.25  
 9 BUGISU_SEBEI Co-risk surveillance priority      2               0.167 
10 BUKEDI       Lower immediate priority          10               0.667 
# ℹ 36 more rows
# ℹ Use `print(n = ...)` to see more rows
…
