…
Pairwise overlap matrix:
# A tibble: 36 × 4
   scenario_a               scenario_b       overlap_n overlap_pct_of_50
   <chr>                    <chr>                <int>             <dbl>
 1 Base                     Base                    50              1   
 2 Co-risk emphasis         Base                    41              0.82
 3 Service deficit emphasis Base                    36              0.72
 4 No burden term           Base                    50              1   
 5 Death-heavy              Base                    50              1   
 6 Admission-heavy          Base                    50              1   
 7 Base                     Co-risk emphasis        41              0.82
 8 Co-risk emphasis         Co-risk emphasis        50              1   
 9 Service deficit emphasis Co-risk emphasis        27              0.54
10 No burden term           Co-risk emphasis        41              0.82
# ℹ 26 more rows
# ℹ Use `print(n = ...)` to see more rows
…
